{
  "project_info": {
    "project_number": "294442231133",
    "project_id": "flutter-chat-app-e0398",
    "storage_bucket": "flutter-chat-app-e0398.appspot.com"
  },
  "client": [
    {
      "client_info": {
        "mobilesdk_app_id": "1:294442231133:android:d9182fcb748e7bf30c34b4",
        "android_client_info": {
          "package_name": "com.example.chat_app"
        }
      },
      "oauth_client": [
        {
          "client_id": "294442231133-9o2p3v2hf7ivb6tdvidqf4neld05vjmu.apps.googleusercontent.com",
          "client_type": 3
        }
      ],
      "api_key": [
        {
          "current_key": "AIzaSyB_qkK0s2I7mO_vy__2Fw6S2UbvC-qkJ04"
        }
      ],
      "services": {
        "appinvite_service": {
          "other_platform_oauth_client": [
            {
              "client_id": "294442231133-9o2p3v2hf7ivb6tdvidqf4neld05vjmu.apps.googleusercontent.com",
              "client_type": 3
            }
          ]
        }
      }
    }
  ],
  "configuration_version": "1"
}